%YAML 1.1
%TAG !u! tag:unity3d.com,2011:
--- !u!114 &11400000
MonoBehaviour:
  m_ObjectHideFlags: 0
  m_PrefabParentObject: {fileID: 0}
  m_PrefabInternal: {fileID: 0}
  m_GameObject: {fileID: 0}
  m_Enabled: 1
  m_EditorHideFlags: 0
  m_Script: {fileID: 11500000, guid: 3c3a82f66a691154aac48000be11e917, type: 3}
  m_Name: FighterDog
  m_EditorClassIdentifier: 
  name: 
  stats:
    ATK: 10
    DEF: 10
    SPD: 10
    LUK: 10
    VIT: 10
    WIS: 10
    level: 1
    swordProf: 1
    staffProf: 1
    bowProf: 1
  weapon: {fileID: 0}
  armor: {fileID: 0}
  spells:
  - {fileID: 0}
  - {fileID: 0}
  - {fileID: 0}
